[
    {
        "component": "FTClusterMonitor",
        "entity": {
            "axis": [
                {
                    "maxValue": 12287.5,
                    "minValue": -0.5,
                    "nBins": 192,
                    "title": ""
                }
            ],
            "bins": [
                0.0,
                316.0,
                335.0,
                302.0,
                321.0,
                313.0,
                329.0,
                327.0,
                322.0,
                652.0,
                578.0,
                610.0,
                536.0,
                546.0,
                504.0,
                488.0,
                447.0,
                498.0,
                446.0,
                396.0,
                379.0,
                431.0,
                316.0,
                370.0,
                354.0,
                335.0,
                311.0,
                288.0,
                314.0,
                271.0,
                263.0,
                308.0,
                427.0,
                286.0,
                242.0,
                254.0,
                189.0,
                241.0,
                228.0,
                204.0,
                197.0,
                223.0,
                199.0,
                215.0,
                188.0,
                197.0,
                182.0,
                185.0,
                178.0,
                149.0,
                195.0,
                134.0,
                137.0,
                156.0,
                170.0,
                173.0,
                141.0,
                177.0,
                144.0,
                161.0,
                148.0,
                157.0,
                135.0,
                146.0,
                192.0,
                140.0,
                111.0,
                120.0,
                135.0,
                121.0,
                121.0,
                113.0,
                120.0,
                111.0,
                128.0,
                118.0,
                125.0,
                113.0,
                109.0,
                119.0,
                118.0,
                102.0,
                118.0,
                109.0,
                122.0,
                95.0,
                75.0,
                85.0,
                78.0,
                87.0,
                103.0,
                71.0,
                95.0,
                105.0,
                86.0,
                80.0,
                65.0,
                64.0,
                67.0,
                74.0,
                66.0,
                70.0,
                76.0,
                77.0,
                77.0,
                68.0,
                70.0,
                58.0,
                60.0,
                70.0,
                66.0,
                62.0,
                61.0,
                56.0,
                62.0,
                73.0,
                65.0,
                57.0,
                55.0,
                42.0,
                62.0,
                58.0,
                50.0,
                48.0,
                52.0,
                66.0,
                56.0,
                61.0,
                55.0,
                80.0,
                48.0,
                65.0,
                44.0,
                61.0,
                48.0,
                35.0,
                46.0,
                72.0,
                75.0,
                69.0,
                75.0,
                82.0,
                68.0,
                71.0,
                68.0,
                75.0,
                55.0,
                64.0,
                65.0,
                61.0,
                43.0,
                43.0,
                65.0,
                46.0,
                58.0,
                43.0,
                50.0,
                44.0,
                41.0,
                43.0,
                53.0,
                19.0,
                23.0,
                9.0,
                9.0,
                15.0,
                20.0,
                18.0,
                14.0,
                14.0,
                20.0,
                14.0,
                11.0,
                35.0,
                16.0,
                15.0,
                12.0,
                19.0,
                23.0,
                20.0,
                19.0,
                13.0,
                6.0,
                6.0,
                20.0,
                18.0,
                16.0,
                15.0,
                20.0,
                10.0,
                14.0,
                20.0,
                11.0,
                0.0
            ],
            "dimension": 1,
            "empty": false,
            "nEntries": 26328,
            "title": "clusters per pseudo channel;Pseudo channel;Clusters / (64 channels)",
            "type": "histogram:WeightedHistogram:d"
        },
        "name": "TAE/MainEvent/LiteClustersPerPseudoChannel_64"
    },
    {
        "component": "FTClusterMonitor",
        "entity": {
            "axis": [
                {
                    "maxValue": 7.5,
                    "minValue": -7.5,
                    "nBins": 15,
                    "title": ""
                }
            ],
            "bins": [
                0,
                0,
                0,
                0,
                0,
                0,
                943,
                1090,
                26328,
                6038,
                1668,
                0,
                0,
                0,
                0,
                0,
                0
            ],
            "dimension": 1,
            "empty": false,
            "nEntries": 36067,
            "title": "Number of clusters per TAE;TAE;Clusters",
            "type": "histogram:Histogram:d"
        },
        "name": "nClustersPerTAE"
    }
]