FTLiteClusterMonitor                   INFO Number of counters : 1
 |    Counter                                      |     #     |    sum     | mean/eff^* | rms/err^*  |     min     |     max     |
 | "number of calls"                               |      1000 |
HLTControlFlowMgr                      INFO Number of counters : 1
 |    Counter                                      |     #     |    sum     | mean/eff^* | rms/err^*  |     min     |     max     |
 | "Processed events"                              |      1000 |
MDFIOAlg                               INFO Number of counters : 2
 |    Counter                                      |     #     |    sum     | mean/eff^* | rms/err^*  |     min     |     max     |
 | "#banks in raw event"                           |      1000 |     242000 |     242.00 |     0.0000 |      242.00 |      242.00 |
 | "event size statistics (KBytes)"                |      1465 |       5344 |     3.6478 |     1.3963 |      3.0000 |      14.000 |
FTLiteClusterMonitor                   INFO 1D histograms in directory "FTLiteClusterMonitor" : 139
 | ID                                            | Title                                         |      #     |     Mean   |    RMS     |  Skewness  |  Kurtosis  |
 | BeamBeam/ClustersPerQuarterChannelIdx         | "Clusters per quarter channel Idx;Quarter..." |     297761 |     3605.3 | 2954.7     |    0.86225 |   -0.24354 |
 | BeamBeam/ClustersPerQuarterChannelIdx_SiPM    | "Clusters per quarter channel Idx;Quarter..." |     297761 |     3605.8 | 2954.4     |     0.8625 |   -0.24342 |
 | BeamBeam/nClusters                            | "Number of clusters;Clusters/event; Events"   |        306 |     973.13 | 873.38     |     1.2407 |     1.2362 |
 | BeamGas1/ClustersPerQuarterChannelIdx         | "Clusters per quarter channel Idx;Quarter..." |       5170 |     4757.2 | 3202.8     |    0.37124 |   -0.98103 |
 | BeamGas1/ClustersPerQuarterChannelIdx_SiPM    | "Clusters per quarter channel Idx;Quarter..." |       5170 |     4757.5 | 3204.0     |     0.3717 |   -0.98014 |
 | BeamGas1/nClusters                            | "Number of clusters;Clusters/event; Events"   |         51 |     100.97 | 23.248     |     3.7827 |     18.743 |
 | BeamGas2/ClustersPerQuarterChannelIdx         | "Clusters per quarter channel Idx;Quarter..." |       9510 |     4931.9 | 3172.7     |    0.32593 |    -1.0013 |
 | BeamGas2/ClustersPerQuarterChannelIdx_SiPM    | "Clusters per quarter channel Idx;Quarter..." |       9510 |     4932.2 | 3172.4     |    0.32657 |    -1.0008 |
 | BeamGas2/nClusters                            | "Number of clusters;Clusters/event; Events"   |         51 |     186.46 | 152.34     |     2.1567 |     3.7498 |
 | ClustersPerBunchCrossing                      | "Bunch crossing ID;BX ID;Clusters"            |     374472 |     128.47 | 52.248     |    0.13959 |    -1.7483 |
 | ClustersPerBunchCrossingASide                 | "Bunch crossing ID (A-side);BX ID;Clusters"   |     186750 |     128.48 | 52.037     |    0.14304 |    -1.7394 |
 | ClustersPerBunchCrossingCSide                 | "Bunch crossing ID (C-side);BX ID;Clusters"   |     187722 |     128.46 | 52.457     |    0.13624 |    -1.7569 |
 | ClustersPerQuarterChannelIdx                  | "Clusters per quarter channel Idx;Quarter..." |     374472 |     3869.9 | 3044.4     |    0.73985 |   -0.50007 |
 | ClustersPerQuarterChannelIdx_SiPM             | "Clusters per quarter channel Idx;Quarter..." |     374472 |     3870.4 | 3044.1     |    0.74011 |       -0.5 |
 | EmptyEmpty/ClustersPerQuarterChannelIdx       | "Clusters per quarter channel Idx;Quarter..." |      62031 |     4903.3 | 3162.7     |    0.33035 |   -0.99156 |
 | EmptyEmpty/ClustersPerQuarterChannelIdx_SiPM  | "Clusters per quarter channel Idx;Quarter..." |      62031 |     4903.6 | 3162.4     |    0.33054 |     -0.992 |
 | EmptyEmpty/nClusters                          | "Number of clusters;Clusters/event; Events"   |        592 |     104.79 | 61.475     |     5.5882 |     36.521 |
 | EventsPerBunchCrossing                        | "Bunch crossing ID; BX ID; Events"            |       1000 |     123.19 | 40.805     |     0.5203 |   -0.98349 |
 | TLQ_Clusters_Channel/T1L0Q0                   | "Clusters per quarter channel idx in T1L0..." |       6532 |     3693.6 | 2836.5     |    0.65073 |   -0.74916 |
 | TLQ_Clusters_Channel/T1L0Q1                   | "Clusters per quarter channel idx in T1L0..." |       6603 |     3897.7 | 3011.2     |     0.5656 |   -0.97364 |
 | TLQ_Clusters_Channel/T1L0Q2                   | "Clusters per quarter channel idx in T1L0..." |      10525 |     3773.7 | 2541.9     |    0.54058 |     -0.436 |
 | TLQ_Clusters_Channel/T1L0Q3                   | "Clusters per quarter channel idx in T1L0..." |       6843 |     3888.6 | 2916.8     |    0.55053 |   -0.91419 |
 | TLQ_Clusters_Channel/T1L1Q0                   | "Clusters per quarter channel idx in T1L1..." |       6559 |     3691.4 | 2873.7     |     0.6775 |   -0.71264 |
 | TLQ_Clusters_Channel/T1L1Q1                   | "Clusters per quarter channel idx in T1L1..." |       6928 |     3728.9 | 2854.9     |    0.63762 |   -0.76526 |
 | TLQ_Clusters_Channel/T1L1Q2                   | "Clusters per quarter channel idx in T1L1..." |       7880 |     3863.2 | 2857.7     |    0.53192 |   -0.92269 |
 | TLQ_Clusters_Channel/T1L1Q3                   | "Clusters per quarter channel idx in T1L1..." |       6806 |     3749.2 | 2873.6     |    0.64696 |   -0.70741 |
 | TLQ_Clusters_Channel/T1L2Q0                   | "Clusters per quarter channel idx in T1L2..." |       7166 |     3651.5 | 2800.6     |     0.6842 |   -0.65774 |
 | TLQ_Clusters_Channel/T1L2Q1                   | "Clusters per quarter channel idx in T1L2..." |       6883 |     3743.8 | 2925.6     |     0.6522 |   -0.77145 |
 | TLQ_Clusters_Channel/T1L2Q2                   | "Clusters per quarter channel idx in T1L2..." |       7080 |     3552.7 | 2861.0     |    0.76701 |   -0.56354 |
 | TLQ_Clusters_Channel/T1L2Q3                   | "Clusters per quarter channel idx in T1L2..." |       7083 |       3691 | 2884.2     |    0.65626 |   -0.76643 |
 | TLQ_Clusters_Channel/T1L3Q0                   | "Clusters per quarter channel idx in T1L3..." |       7689 |     3460.7 | 2798.9     |    0.79725 |   -0.48703 |
 | TLQ_Clusters_Channel/T1L3Q1                   | "Clusters per quarter channel idx in T1L3..." |       7834 |     3852.6 | 2963.1     |    0.59025 |   -0.90001 |
 | TLQ_Clusters_Channel/T1L3Q2                   | "Clusters per quarter channel idx in T1L3..." |       6720 |       3384 | 2759.1     |    0.83901 |   -0.36447 |
 | TLQ_Clusters_Channel/T1L3Q3                   | "Clusters per quarter channel idx in T1L3..." |       7570 |     3684.4 | 2864.9     |    0.65761 |    -0.7161 |
 | TLQ_Clusters_Channel/T2L0Q0                   | "Clusters per quarter channel idx in T2L0..." |       7090 |     3922.1 | 2964.1     |    0.57014 |   -0.94019 |
 | TLQ_Clusters_Channel/T2L0Q1                   | "Clusters per quarter channel idx in T2L0..." |       6323 |     3717.2 | 2891.5     |    0.68477 |   -0.70949 |
 | TLQ_Clusters_Channel/T2L0Q2                   | "Clusters per quarter channel idx in T2L0..." |       6613 |     3615.9 | 2951.9     |    0.67859 |   -0.82652 |
 | TLQ_Clusters_Channel/T2L0Q3                   | "Clusters per quarter channel idx in T2L0..." |       6664 |       3822 | 2880.4     |    0.60715 |   -0.81179 |
 | TLQ_Clusters_Channel/T2L1Q0                   | "Clusters per quarter channel idx in T2L1..." |       7815 |     3727.4 | 2814.6     |    0.68309 |   -0.60823 |
 | TLQ_Clusters_Channel/T2L1Q1                   | "Clusters per quarter channel idx in T2L1..." |       7141 |     3648.2 | 2795.1     |    0.69871 |   -0.61795 |
 | TLQ_Clusters_Channel/T2L1Q2                   | "Clusters per quarter channel idx in T2L1..." |       6853 |     3753.1 | 3040.1     |    0.63245 |   -0.94318 |
 | TLQ_Clusters_Channel/T2L1Q3                   | "Clusters per quarter channel idx in T2L1..." |       8031 |     3969.4 | 2983.3     |    0.56054 |   -0.94532 |
 | TLQ_Clusters_Channel/T2L2Q0                   | "Clusters per quarter channel idx in T2L2..." |       6260 |       3158 | 2539.4     |     0.9459 |     0.1106 |
 | TLQ_Clusters_Channel/T2L2Q1                   | "Clusters per quarter channel idx in T2L2..." |       7995 |       4336 | 3225.8     |    0.44006 |    -1.2071 |
 | TLQ_Clusters_Channel/T2L2Q2                   | "Clusters per quarter channel idx in T2L2..." |       6857 |     3230.6 | 2645.5     |    0.83325 |   -0.30269 |
 | TLQ_Clusters_Channel/T2L2Q3                   | "Clusters per quarter channel idx in T2L2..." |       7681 |     3873.1 | 2979.4     |    0.58176 |   -0.93865 |
 | TLQ_Clusters_Channel/T2L3Q0                   | "Clusters per quarter channel idx in T2L3..." |       7756 |     3677.2 | 2897.5     |    0.66312 |   -0.75041 |
 | TLQ_Clusters_Channel/T2L3Q1                   | "Clusters per quarter channel idx in T2L3..." |       8860 |     3690.5 | 2791.6     |    0.72347 |   -0.60132 |
 | TLQ_Clusters_Channel/T2L3Q2                   | "Clusters per quarter channel idx in T2L3..." |       6947 |     3097.6 | 2556.4     |      1.043 |    0.34193 |
 | TLQ_Clusters_Channel/T2L3Q3                   | "Clusters per quarter channel idx in T2L3..." |       7627 |     3767.5 | 2946.4     |    0.61705 |   -0.84857 |
 | TLQ_Clusters_Channel/T3L0Q0                   | "Clusters per quarter channel idx in T3L0..." |       8454 |     4647.1 | 3333.8     |    0.63751 |   -0.61535 |
 | TLQ_Clusters_Channel/T3L0Q1                   | "Clusters per quarter channel idx in T3L0..." |       7364 |     4194.6 | 3301.2     |    0.74734 |     -0.535 |
 | TLQ_Clusters_Channel/T3L0Q2                   | "Clusters per quarter channel idx in T3L0..." |       7375 |     4310.7 | 3545.3     |    0.63679 |   -0.89867 |
 | TLQ_Clusters_Channel/T3L0Q3                   | "Clusters per quarter channel idx in T3L0..." |       8150 |     4207.3 | 3254.8     |    0.73058 |   -0.51782 |
 | TLQ_Clusters_Channel/T3L1Q0                   | "Clusters per quarter channel idx in T3L1..." |      10599 |     4172.1 | 3277.8     |    0.72276 |   -0.53497 |
 | TLQ_Clusters_Channel/T3L1Q1                   | "Clusters per quarter channel idx in T3L1..." |       9265 |     4100.9 | 3163.6     |    0.76467 |   -0.39127 |
 | TLQ_Clusters_Channel/T3L1Q2                   | "Clusters per quarter channel idx in T3L1..." |       9724 |     4235.6 | 3164.0     |    0.69181 |   -0.47365 |
 | TLQ_Clusters_Channel/T3L1Q3                   | "Clusters per quarter channel idx in T3L1..." |       7418 |     4202.8 | 3523.6     |    0.73823 |   -0.75109 |
 | TLQ_Clusters_Channel/T3L2Q0                   | "Clusters per quarter channel idx in T3L2..." |       7368 |     3699.6 | 3230.1     |    0.95918 |   -0.10114 |
 | TLQ_Clusters_Channel/T3L2Q1                   | "Clusters per quarter channel idx in T3L2..." |       8241 |     4122.3 | 3265.3     |    0.74118 |   -0.54063 |
 | TLQ_Clusters_Channel/T3L2Q2                   | "Clusters per quarter channel idx in T3L2..." |       8926 |     4136.8 | 3308.2     |    0.73105 |   -0.58152 |
 | TLQ_Clusters_Channel/T3L2Q3                   | "Clusters per quarter channel idx in T3L2..." |       9986 |     4283.9 | 3317.6     |     0.7233 |   -0.56795 |
 | TLQ_Clusters_Channel/T3L3Q0                   | "Clusters per quarter channel idx in T3L3..." |       9384 |     3739.3 | 3006.9     |    0.91384 |   0.014566 |
 | TLQ_Clusters_Channel/T3L3Q1                   | "Clusters per quarter channel idx in T3L3..." |       8377 |     3682.1 | 3172.4     |     1.1308 |     0.4583 |
 | TLQ_Clusters_Channel/T3L3Q2                   | "Clusters per quarter channel idx in T3L3..." |       9550 |       4284 | 3550.1     |    0.66024 |   -0.89326 |
 | TLQ_Clusters_Channel/T3L3Q3                   | "Clusters per quarter channel idx in T3L3..." |      11077 |     4189.9 | 3182.1     |    0.71431 |   -0.49702 |
 | TLQ_Clusters_SiPM/T1L0Q0                      | "Clusters per quarter channel idx in T1L0..." |       6532 |     3693.6 | 2836.2     |    0.65106 |   -0.75031 |
 | TLQ_Clusters_SiPM/T1L0Q1                      | "Clusters per quarter channel idx in T1L0..." |       6603 |       3899 | 3010.5     |     0.5655 |   -0.97468 |
 | TLQ_Clusters_SiPM/T1L0Q2                      | "Clusters per quarter channel idx in T1L0..." |      10525 |     3775.1 | 2541.6     |    0.54108 |   -0.43586 |
 | TLQ_Clusters_SiPM/T1L0Q3                      | "Clusters per quarter channel idx in T1L0..." |       6843 |     3889.2 | 2915.6     |    0.55091 |   -0.91445 |
 | TLQ_Clusters_SiPM/T1L1Q0                      | "Clusters per quarter channel idx in T1L1..." |       6559 |     3691.6 | 2873.6     |    0.67825 |   -0.71245 |
 | TLQ_Clusters_SiPM/T1L1Q1                      | "Clusters per quarter channel idx in T1L1..." |       6928 |     3728.8 | 2853.9     |    0.63667 |   -0.76709 |
 | TLQ_Clusters_SiPM/T1L1Q2                      | "Clusters per quarter channel idx in T1L1..." |       7880 |     3864.3 | 2857.4     |     0.5309 |   -0.92393 |
 | TLQ_Clusters_SiPM/T1L1Q3                      | "Clusters per quarter channel idx in T1L1..." |       6806 |     3748.7 | 2872.9     |     0.6472 |   -0.70706 |
 | TLQ_Clusters_SiPM/T1L2Q0                      | "Clusters per quarter channel idx in T1L2..." |       7166 |     3652.1 | 2800.9     |    0.68487 |   -0.65698 |
 | TLQ_Clusters_SiPM/T1L2Q1                      | "Clusters per quarter channel idx in T1L2..." |       6883 |     3743.5 | 2924.2     |    0.65127 |   -0.77378 |
 | TLQ_Clusters_SiPM/T1L2Q2                      | "Clusters per quarter channel idx in T1L2..." |       7080 |     3553.8 | 2861.0     |    0.76802 |   -0.56156 |
 | TLQ_Clusters_SiPM/T1L2Q3                      | "Clusters per quarter channel idx in T1L2..." |       7083 |     3691.1 | 2882.7     |    0.65687 |   -0.76559 |
 | TLQ_Clusters_SiPM/T1L3Q0                      | "Clusters per quarter channel idx in T1L3..." |       7689 |     3461.5 | 2798.1     |    0.79826 |   -0.48656 |
 | TLQ_Clusters_SiPM/T1L3Q1                      | "Clusters per quarter channel idx in T1L3..." |       7834 |     3853.3 | 2961.9     |    0.59069 |   -0.90059 |
 | TLQ_Clusters_SiPM/T1L3Q2                      | "Clusters per quarter channel idx in T1L3..." |       6720 |     3383.9 | 2759.3     |    0.83978 |   -0.36299 |
 | TLQ_Clusters_SiPM/T1L3Q3                      | "Clusters per quarter channel idx in T1L3..." |       7570 |     3684.3 | 2864.3     |    0.65684 |   -0.71814 |
 | TLQ_Clusters_SiPM/T2L0Q0                      | "Clusters per quarter channel idx in T2L0..." |       7090 |     3922.6 | 2964.1     |    0.56966 |    -0.9419 |
 | TLQ_Clusters_SiPM/T2L0Q1                      | "Clusters per quarter channel idx in T2L0..." |       6323 |     3716.6 | 2891.5     |    0.68537 |   -0.70924 |
 | TLQ_Clusters_SiPM/T2L0Q2                      | "Clusters per quarter channel idx in T2L0..." |       6613 |     3616.7 | 2951.2     |    0.67857 |   -0.82559 |
 | TLQ_Clusters_SiPM/T2L0Q3                      | "Clusters per quarter channel idx in T2L0..." |       6664 |     3821.3 | 2879.7     |    0.60663 |   -0.81251 |
 | TLQ_Clusters_SiPM/T2L1Q0                      | "Clusters per quarter channel idx in T2L1..." |       7815 |       3727 | 2814.4     |     0.6822 |   -0.60901 |
 | TLQ_Clusters_SiPM/T2L1Q1                      | "Clusters per quarter channel idx in T2L1..." |       7141 |     3649.1 | 2794.4     |    0.69863 |   -0.61816 |
 | TLQ_Clusters_SiPM/T2L1Q2                      | "Clusters per quarter channel idx in T2L1..." |       6853 |       3753 | 3040.3     |    0.63201 |   -0.94399 |
 | TLQ_Clusters_SiPM/T2L1Q3                      | "Clusters per quarter channel idx in T2L1..." |       8031 |     3969.5 | 2983.2     |    0.56137 |   -0.94506 |
 | TLQ_Clusters_SiPM/T2L2Q0                      | "Clusters per quarter channel idx in T2L2..." |       6260 |     3159.2 | 2539.1     |    0.94604 |    0.11087 |
 | TLQ_Clusters_SiPM/T2L2Q1                      | "Clusters per quarter channel idx in T2L2..." |       7995 |     4336.5 | 3225.5     |    0.44048 |    -1.2075 |
 | TLQ_Clusters_SiPM/T2L2Q2                      | "Clusters per quarter channel idx in T2L2..." |       6857 |     3232.3 | 2645.2     |    0.83393 |   -0.30164 |
 | TLQ_Clusters_SiPM/T2L2Q3                      | "Clusters per quarter channel idx in T2L2..." |       7681 |     3873.5 | 2979.8     |    0.58154 |   -0.94013 |
 | TLQ_Clusters_SiPM/T2L3Q0                      | "Clusters per quarter channel idx in T2L3..." |       7756 |     3678.9 | 2896.5     |    0.66421 |   -0.74913 |
 | TLQ_Clusters_SiPM/T2L3Q1                      | "Clusters per quarter channel idx in T2L3..." |       8860 |     3690.7 | 2790.9     |     0.7241 |   -0.59998 |
 | TLQ_Clusters_SiPM/T2L3Q2                      | "Clusters per quarter channel idx in T2L3..." |       6947 |     3098.1 | 2555.5     |     1.0441 |    0.34524 |
 | TLQ_Clusters_SiPM/T2L3Q3                      | "Clusters per quarter channel idx in T2L3..." |       7627 |     3768.9 | 2945.4     |    0.61706 |   -0.84914 |
 | TLQ_Clusters_SiPM/T3L0Q0                      | "Clusters per quarter channel idx in T3L0..." |       8454 |     4648.4 | 3334.5     |    0.63743 |   -0.61666 |
 | TLQ_Clusters_SiPM/T3L0Q1                      | "Clusters per quarter channel idx in T3L0..." |       7364 |     4194.6 | 3300.5     |    0.74695 |   -0.53474 |
 | TLQ_Clusters_SiPM/T3L0Q2                      | "Clusters per quarter channel idx in T3L0..." |       7375 |     4311.3 | 3545.0     |    0.63645 |    -0.8995 |
 | TLQ_Clusters_SiPM/T3L0Q3                      | "Clusters per quarter channel idx in T3L0..." |       8150 |     4207.6 | 3254.8     |    0.73075 |   -0.51818 |
 | TLQ_Clusters_SiPM/T3L1Q0                      | "Clusters per quarter channel idx in T3L1..." |      10599 |     4171.9 | 3277.6     |    0.72306 |   -0.53486 |
 | TLQ_Clusters_SiPM/T3L1Q1                      | "Clusters per quarter channel idx in T3L1..." |       9265 |     4101.5 | 3163.3     |    0.76555 |   -0.39018 |
 | TLQ_Clusters_SiPM/T3L1Q2                      | "Clusters per quarter channel idx in T3L1..." |       9724 |     4235.9 | 3163.6     |    0.69181 |   -0.47412 |
 | TLQ_Clusters_SiPM/T3L1Q3                      | "Clusters per quarter channel idx in T3L1..." |       7418 |     4202.6 | 3523.7     |     0.7385 |   -0.75105 |
 | TLQ_Clusters_SiPM/T3L2Q0                      | "Clusters per quarter channel idx in T3L2..." |       7368 |     3700.5 | 3228.2     |    0.95921 |   -0.10212 |
 | TLQ_Clusters_SiPM/T3L2Q1                      | "Clusters per quarter channel idx in T3L2..." |       8241 |     4123.2 | 3266.0     |    0.74086 |   -0.54158 |
 | TLQ_Clusters_SiPM/T3L2Q2                      | "Clusters per quarter channel idx in T3L2..." |       8926 |     4137.2 | 3307.7     |    0.73123 |    -0.5809 |
 | TLQ_Clusters_SiPM/T3L2Q3                      | "Clusters per quarter channel idx in T3L2..." |       9986 |       4285 | 3318.0     |    0.72317 |   -0.56871 |
 | TLQ_Clusters_SiPM/T3L3Q0                      | "Clusters per quarter channel idx in T3L3..." |       9384 |       3740 | 3006.7     |    0.91433 |   0.015274 |
 | TLQ_Clusters_SiPM/T3L3Q1                      | "Clusters per quarter channel idx in T3L3..." |       8377 |     3682.4 | 3172.2     |     1.1317 |    0.45954 |
 | TLQ_Clusters_SiPM/T3L3Q2                      | "Clusters per quarter channel idx in T3L3..." |       9550 |     4284.8 | 3550.0     |     0.6607 |    -0.8935 |
 | TLQ_Clusters_SiPM/T3L3Q3                      | "Clusters per quarter channel idx in T3L3..." |      11077 |     4190.3 | 3182.3     |    0.71543 |   -0.49541 |
 | TLY_Clusters_SiPM/T1L0D                       | "Clusters per module in T1L0 (y < 0);Modu..." |      13135 |   0.060157 | 2.3403     |   0.050685 |   -0.47323 |
 | TLY_Clusters_SiPM/T1L0U                       | "Clusters per module in T1L0 (y > 0);Modu..." |      17368 |   -0.36889 | 2.2531     |    0.34604 |    -0.4174 |
 | TLY_Clusters_SiPM/T1L1D                       | "Clusters per module in T1L1 (y < 0);Modu..." |      13487 |   0.058647 | 2.2881     |  -0.035462 |   -0.41156 |
 | TLY_Clusters_SiPM/T1L1U                       | "Clusters per module in T1L1 (y > 0);Modu..." |      14686 |   -0.16417 | 2.3224     |   0.083631 |   -0.50014 |
 | TLY_Clusters_SiPM/T1L2D                       | "Clusters per module in T1L2 (y < 0);Modu..." |      14049 |  -0.014065 | 2.2831     |   0.061177 |   -0.39474 |
 | TLY_Clusters_SiPM/T1L2U                       | "Clusters per module in T1L2 (y > 0);Modu..." |      14163 |   0.033902 | 2.2574     | -0.0047008 |   -0.31841 |
 | TLY_Clusters_SiPM/T1L3D                       | "Clusters per module in T1L3 (y < 0);Modu..." |      15523 |    0.11234 | 2.2738     |   0.033157 |   -0.35626 |
 | TLY_Clusters_SiPM/T1L3U                       | "Clusters per module in T1L3 (y > 0);Modu..." |      14290 |    0.17598 | 2.2041     |  -0.024284 |   -0.27127 |
 | TLY_Clusters_SiPM/T2L0D                       | "Clusters per module in T2L0 (y < 0);Modu..." |      13413 |   -0.15696 | 2.3484     |   0.035035 |   -0.45792 |
 | TLY_Clusters_SiPM/T2L0U                       | "Clusters per module in T2L0 (y > 0);Modu..." |      13277 |   0.056938 | 2.3076     |  -0.039179 |   -0.40944 |
 | TLY_Clusters_SiPM/T2L1D                       | "Clusters per module in T2L1 (y < 0);Modu..." |      14956 |   -0.10018 | 2.2612     |   0.032519 |   -0.39441 |
 | TLY_Clusters_SiPM/T2L1U                       | "Clusters per module in T2L1 (y > 0);Modu..." |      14884 |    0.20209 | 2.3860     |  -0.095808 |   -0.45256 |
 | TLY_Clusters_SiPM/T2L2D                       | "Clusters per module in T2L2 (y < 0);Modu..." |      14255 |     0.5102 | 2.3165     |     0.1009 |   -0.48919 |
 | TLY_Clusters_SiPM/T2L2U                       | "Clusters per module in T2L2 (y > 0);Modu..." |      14538 |    0.25488 | 2.2150     |   0.061904 |   -0.34947 |
 | TLY_Clusters_SiPM/T2L3D                       | "Clusters per module in T2L3 (y < 0);Modu..." |      16616 |    0.12245 | 2.2688     |  -0.090374 |   -0.36249 |
 | TLY_Clusters_SiPM/T2L3U                       | "Clusters per module in T2L3 (y > 0);Modu..." |      14574 |    0.24201 | 2.1518     |   0.084114 |   -0.20757 |
 | TLY_Clusters_SiPM/T3L0D                       | "Clusters per module in T3L0 (y < 0);Modu..." |      15818 |   -0.25957 | 2.6955     |   0.060882 |    -0.4069 |
 | TLY_Clusters_SiPM/T3L0U                       | "Clusters per module in T3L0 (y > 0);Modu..." |      15525 |   0.078533 | 2.6580     |    -0.1272 |   -0.32043 |
 | TLY_Clusters_SiPM/T3L1D                       | "Clusters per module in T3L1 (y < 0);Modu..." |      19864 |   -0.15285 | 2.5577     |   0.018351 |   -0.29474 |
 | TLY_Clusters_SiPM/T3L1U                       | "Clusters per module in T3L1 (y > 0);Modu..." |      17142 |   -0.28529 | 2.6083     |    0.23863 |   -0.21906 |
 | TLY_Clusters_SiPM/T3L2D                       | "Clusters per module in T3L2 (y < 0);Modu..." |      15609 |    0.21004 | 2.4806     |  -0.052242 |  -0.073079 |
 | TLY_Clusters_SiPM/T3L2U                       | "Clusters per module in T3L2 (y > 0);Modu..." |      18912 |    0.15136 | 2.6139     |  -0.042102 |   -0.30069 |
 | TLY_Clusters_SiPM/T3L3D                       | "Clusters per module in T3L3 (y < 0);Modu..." |      17761 |   -0.11682 | 2.3547     |    0.13701 |    0.19348 |
 | TLY_Clusters_SiPM/T3L3U                       | "Clusters per module in T3L3 (y > 0);Modu..." |      20627 |    0.13013 | 2.6356     |    -0.1791 |     -0.302 |
 | nClusters                                     | "Number of clusters;Clusters/event; Events"   |       1000 |     374.47 | 628.65     |      2.912 |     9.1987 |
FTLiteClusterMonitor                   INFO 1D profile histograms in directory "FTLiteClusterMonitor" : 5
 | ID                                            | Title                                         |      #     |     Mean   |    RMS     |  Skewness  |  Kurtosis  |
 | BeamBeam/ClustersPerEventPerSiPMProfile       | "Clusters Per Event per SiPM;SiPM;#LTClus..." |    1253376 |       2004 | 1184.4     |   0.043867 |    -1.1938 |
 | BeamGas1/ClustersPerEventPerSiPMProfile       | "Clusters Per Event per SiPM;SiPM;#LTClus..." |     208896 |     2306.5 | 1181.3     |   -0.28945 |    -1.0675 |
 | BeamGas2/ClustersPerEventPerSiPMProfile       | "Clusters Per Event per SiPM;SiPM;#LTClus..." |     208896 |     2111.2 | 1222.7     |  -0.087801 |    -1.2605 |
 | ClustersPerEventPerSiPMProfile                | "Clusters Per Event per SiPM;SiPM;#LTClus..." |    4096000 |     2054.1 | 1192.4     |  -0.010751 |    -1.2064 |
 | EmptyEmpty/ClustersPerEventPerSiPMProfile     | "Clusters Per Event per SiPM;SiPM;#LTClus..." |    2424832 |     2265.1 | 1200.2     |   -0.24954 |    -1.1428 |
